<?xml version="1.0" encoding="UTF-8" standalone="no"?>
<!-- Created with Inkscape (http://www.inkscape.org/) -->

<svg
   xmlns:i="http://ns.adobe.com/AdobeIllustrator/10.0/"
   xmlns:dc="http://purl.org/dc/elements/1.1/"
   xmlns:cc="http://creativecommons.org/ns#"
   xmlns:rdf="http://www.w3.org/1999/02/22-rdf-syntax-ns#"
   xmlns:svg="http://www.w3.org/2000/svg"
   xmlns="http://www.w3.org/2000/svg"
   xmlns:sodipodi="http://sodipodi.sourceforge.net/DTD/sodipodi-0.dtd"
   xmlns:inkscape="http://www.inkscape.org/namespaces/inkscape"
   width="210mm"
   height="297mm"
   viewBox="0 0 210 297"
   version="1.1"
   id="svg1070"
   inkscape:export-filename="/home/foockinho/Escritorio/debian-10-artwork/beta/plymouth-logo.png"
   inkscape:export-xdpi="120"
   inkscape:export-ydpi="120"
   inkscape:version="0.92.3 (unknown)"
   sodipodi:docname="plymouth-logo.svg">
  <defs
     id="defs1064">
    <filter
       inkscape:collect="always"
       style="color-interpolation-filters:sRGB"
       id="filter1433"
       x="-0.094275959"
       width="1.1885519"
       y="-0.075744003"
       height="1.1514879">
      <feGaussianBlur
         inkscape:collect="always"
         stdDeviation="2.8459546"
         id="feGaussianBlur1435" />
    </filter>
    <filter
       inkscape:collect="always"
       style="color-interpolation-filters:sRGB"
       id="filter1650"
       x="-0.048060361"
       width="1.0961207"
       y="-0.14345948"
       height="1.286919">
      <feGaussianBlur
         inkscape:collect="always"
         stdDeviation="0.5762349"
         id="feGaussianBlur1652" />
    </filter>
  </defs>
  <sodipodi:namedview
     id="base"
     pagecolor="#ffffff"
     bordercolor="#666666"
     borderopacity="1.0"
     inkscape:pageopacity="0.0"
     inkscape:pageshadow="2"
     inkscape:zoom="0.35"
     inkscape:cx="9.4737168"
     inkscape:cy="539.68706"
     inkscape:document-units="mm"
     inkscape:current-layer="layer1"
     showgrid="false"
     inkscape:window-width="1920"
     inkscape:window-height="1018"
     inkscape:window-x="0"
     inkscape:window-y="34"
     inkscape:window-maximized="1" />
  <metadata
     id="metadata1067">
    <rdf:RDF>
      <cc:Work
         rdf:about="">
        <dc:format>image/svg+xml</dc:format>
        <dc:type
           rdf:resource="http://purl.org/dc/dcmitype/StillImage" />
        <dc:title></dc:title>
      </cc:Work>
    </rdf:RDF>
  </metadata>
  <g
     inkscape:label="Capa 1"
     inkscape:groupmode="layer"
     id="layer1">
    <g
       id="g1765"
       transform="translate(63.233633,42.000006)">
      <g
         id="g1576"
         transform="matrix(3.363946,0,0,3.363946,-1053.8999,-1069.8245)"
         style="fill:#2d3337;fill-opacity:1;filter:url(#filter1650);enable-background:new">
        <path
           inkscape:connector-curvature="0"
           i:knockout="Off"
           d="m 314.87605,370.25444 c -0.0119,0.0124 -0.0119,1.98596 -0.0365,2.5011 -0.0243,0.41646 -0.0614,1.31154 -0.94403,1.31154 -0.90726,0 -1.12792,-1.04219 -1.20148,-1.49542 -0.0857,-0.50271 -0.0857,-0.91996 -0.0857,-1.10332 0,-0.58869 0.0368,-2.23202 1.42214,-2.23202 0.41698,0 0.64981,0.12303 0.8337,0.22066 z m -3.5552,1.447 c 0,3.45705 1.83912,3.45705 2.10873,3.45705 0.76014,0 1.25068,-0.41699 1.45891,-1.14009 l 0.0246,1.09088 c 0.23309,-0.0124 0.46593,-0.0368 0.84587,-0.0368 0.13494,0 0.245,0 0.34343,0.0124 0.0982,0 0.19605,0.0119 0.30638,0.0243 -0.19605,-0.39212 -0.34316,-1.27477 -0.34316,-3.18797 0,-1.86346 0,-5.01412 0.15928,-5.97059 -0.44106,0.20876 -0.82153,0.3437 -1.65523,0.41699 0.33099,0.3556 0.33099,0.53948 0.33099,2.15741 -0.23257,-0.0733 -0.52705,-0.15927 -1.02976,-0.15927 -2.19445,2.6e-4 -2.55005,1.91294 -2.55005,3.3356"
           id="path1562"
           style="overflow:visible;fill:#2d3337;fill-opacity:1;stroke-width:0.26458332" />
        <path
           inkscape:connector-curvature="0"
           i:knockout="Off"
           d="m 317.96983,371.07544 c 0.0124,-1.01759 0.22092,-1.92485 1.09114,-1.92485 0.95647,0 1.02949,1.0541 1.00515,1.92485 z m 3.30993,0.12303 c 0,-1.43457 -0.28178,-2.8448 -2.09629,-2.8448 -2.50084,0 -2.50084,2.77151 -2.50084,3.35941 0,2.48867 1.11548,3.46949 2.99138,3.46949 0.83317,0 1.23825,-0.12198 1.45891,-0.18389 -0.0122,-0.44133 0.0489,-0.72337 0.12303,-1.10331 -0.25797,0.15981 -0.58896,0.36803 -1.3245,0.36803 -1.91268,0 -1.93728,-1.74148 -1.93728,-2.34209 h 3.26178 l 0.0238,-0.72284"
           id="path1564"
           style="overflow:visible;fill:#2d3337;fill-opacity:1;stroke-width:0.26458332" />
        <path
           inkscape:connector-curvature="0"
           i:knockout="Off"
           d="m 325.26836,371.72552 c 0,1.14009 -0.20823,2.67282 -1.63036,2.67282 -0.19633,0 -0.44133,-0.0373 -0.60061,-0.0738 -0.0246,-0.44132 -0.0246,-1.20147 -0.0246,-2.08412 0,-1.05463 0.11007,-1.60549 0.19632,-1.8759 0.25718,-0.87021 0.83344,-0.88212 0.94351,-0.88212 0.93186,0 1.11574,1.2872 1.11574,2.24314 z m -3.51843,1.33641 c 0,0.90752 0,1.42214 -0.14711,1.81425 0.50271,0.19632 1.12765,0.30639 1.8759,0.30639 0.4781,0 1.86346,0 2.61117,-1.53221 0.3556,-0.7112 0.4781,-1.66767 0.4781,-2.39104 0,-0.44132 -0.0492,-1.4097 -0.40455,-2.023 -0.3429,-0.57573 -0.89482,-0.87022 -1.48299,-0.87022 -1.17713,0 -1.52029,0.98082 -1.70391,1.48352 0,-0.62521 0.0119,-2.80749 0.1098,-3.92324 -0.79666,0.36804 -1.28746,0.42889 -1.81425,0.4781 0.4781,0.1958 0.4781,1.00569 0.4781,3.64173 v 3.01572"
           id="path1566"
           style="overflow:visible;fill:#2d3337;fill-opacity:1;stroke-width:0.26458332" />
        <path
           inkscape:connector-curvature="0"
           i:knockout="Off"
           d="m 328.9249,375.10928 c -0.24553,-0.0368 -0.41751,-0.0614 -0.77311,-0.0614 -0.39159,0 -0.66199,0.0249 -0.94351,0.0614 0.1225,-0.2331 0.17145,-0.3437 0.20823,-1.14009 0.0492,-1.09141 0.0614,-4.0095 -0.0243,-4.62254 -0.0614,-0.4662 -0.17145,-0.53948 -0.34317,-0.66199 1.00516,-0.0982 1.2872,-0.17145 1.75287,-0.39211 -0.0976,0.53896 -0.1106,0.80936 -0.1106,1.63036 -0.0241,4.23043 -0.0365,4.68366 0.23363,5.18637"
           id="path1568"
           style="overflow:visible;fill:#2d3337;fill-opacity:1;stroke-width:0.26458332" />
        <path
           inkscape:connector-curvature="0"
           i:knockout="Off"
           d="m 332.85079,371.63927 c -0.0243,0.77258 -0.0368,1.31206 -0.24554,1.74095 -0.25744,0.55192 -0.68633,0.7112 -1.00515,0.7112 -0.73633,0 -0.89508,-0.61277 -0.89508,-1.21338 0,-1.15226 1.03002,-1.23877 1.49542,-1.23877 z m -3.37185,1.50838 c 0,0.77259 0.23309,1.54464 0.91995,1.8759 0.30639,0.13494 0.61278,0.13494 0.7112,0.13494 1.12819,0 1.50786,-0.83397 1.74096,-1.34885 -0.0124,0.53949 0,0.87022 0.0368,1.29964 0.22066,-0.0124 0.44133,-0.0368 0.80936,-0.0368 0.20823,0 0.40455,0.0243 0.61278,0.0368 -0.13494,-0.20823 -0.20823,-0.33126 -0.24554,-0.80936 -0.0243,-0.46567 -0.0243,-0.9316 -0.0243,-1.58142 l 0.0124,-2.50111 c 0,-0.93212 -0.24553,-1.85155 -2.08465,-1.85155 -1.21338,0 -1.92431,0.36804 -2.27991,0.55192 0.14737,0.26988 0.26987,0.50218 0.37994,1.03002 0.47863,-0.41698 1.10384,-0.63764 1.74096,-0.63764 1.01811,0 1.01811,0.67442 1.01811,1.63036 -0.23309,-0.0119 -0.42942,-0.0362 -0.76067,-0.0362 -1.55761,2.7e-4 -2.58736,0.60008 -2.58736,2.2434"
           id="path1570"
           style="overflow:visible;fill:#2d3337;fill-opacity:1;stroke-width:0.26458332" />
        <path
           inkscape:connector-curvature="0"
           i:knockout="Off"
           d="m 339.91252,373.89563 c 0.0124,0.41699 0.0124,0.85831 0.18388,1.21391 -0.27014,-0.0243 -0.42942,-0.0614 -0.9316,-0.0614 -0.29448,0 -0.45376,0.0249 -0.68685,0.0614 0.0487,-0.15928 0.0738,-0.22066 0.0982,-0.42942 0.0368,-0.28152 0.0614,-1.22581 0.0614,-1.55707 v -1.32398 c 0,-0.57626 0,-1.41023 -0.0373,-1.70418 -0.0243,-0.20822 -0.0852,-0.77205 -0.79693,-0.77205 -0.69876,0 -0.9316,0.51461 -1.01759,0.9316 -0.0976,0.42889 -0.0976,0.89508 -0.0976,2.70933 0.0119,1.56951 0.0119,1.71609 0.13441,2.14551 -0.20823,-0.0243 -0.46567,-0.0487 -0.83344,-0.0487 -0.29448,0 -0.49053,0.0119 -0.73527,0.0487 0.0857,-0.19633 0.13493,-0.29449 0.15928,-0.98081 0.0249,-0.67443 0.0738,-3.98489 -0.0373,-4.76912 -0.0609,-0.47863 -0.18389,-0.5887 -0.3183,-0.7112 0.99325,-0.0492 1.31154,-0.20876 1.61846,-0.36751 v 1.29911 c 0.14684,-0.38047 0.45323,-1.22635 1.67957,-1.22635 1.53274,0 1.54464,1.11575 1.55708,1.85103 v 3.6912"
           id="path1572"
           style="overflow:visible;fill:#2d3337;fill-opacity:1;stroke-width:0.26458332" />
        <path
           style="overflow:visible;fill:#ff8c3f;fill-opacity:1;stroke-width:0.26458332"
           inkscape:connector-curvature="0"
           i:knockout="Off"
           d="m 329.02835,366.55741 -1.01547,1.01494 -1.01494,-1.01494 1.01494,-1.01494 1.01547,1.01494"
           id="path1574" />
      </g>
      <g
         style="fill:#2d3337;fill-opacity:1;enable-background:new"
         transform="matrix(3.363946,0,0,3.363946,-1053.8999,-1071.105)"
         id="g8060">
        <path
           style="overflow:visible;fill:#2d3337;fill-opacity:1;stroke-width:0.26458332"
           id="path7974"
           d="m 314.87605,370.25444 c -0.0119,0.0124 -0.0119,1.98596 -0.0365,2.5011 -0.0243,0.41646 -0.0614,1.31154 -0.94403,1.31154 -0.90726,0 -1.12792,-1.04219 -1.20148,-1.49542 -0.0857,-0.50271 -0.0857,-0.91996 -0.0857,-1.10332 0,-0.58869 0.0368,-2.23202 1.42214,-2.23202 0.41698,0 0.64981,0.12303 0.8337,0.22066 z m -3.5552,1.447 c 0,3.45705 1.83912,3.45705 2.10873,3.45705 0.76014,0 1.25068,-0.41699 1.45891,-1.14009 l 0.0246,1.09088 c 0.23309,-0.0124 0.46593,-0.0368 0.84587,-0.0368 0.13494,0 0.245,0 0.34343,0.0124 0.0982,0 0.19605,0.0119 0.30638,0.0243 -0.19605,-0.39212 -0.34316,-1.27477 -0.34316,-3.18797 0,-1.86346 0,-5.01412 0.15928,-5.97059 -0.44106,0.20876 -0.82153,0.3437 -1.65523,0.41699 0.33099,0.3556 0.33099,0.53948 0.33099,2.15741 -0.23257,-0.0733 -0.52705,-0.15927 -1.02976,-0.15927 -2.19445,2.6e-4 -2.55005,1.91294 -2.55005,3.3356"
           i:knockout="Off"
           inkscape:connector-curvature="0" />
        <path
           style="overflow:visible;fill:#2d3337;fill-opacity:1;stroke-width:0.26458332"
           id="path7976"
           d="m 317.96983,371.07544 c 0.0124,-1.01759 0.22092,-1.92485 1.09114,-1.92485 0.95647,0 1.02949,1.0541 1.00515,1.92485 z m 3.30993,0.12303 c 0,-1.43457 -0.28178,-2.8448 -2.09629,-2.8448 -2.50084,0 -2.50084,2.77151 -2.50084,3.35941 0,2.48867 1.11548,3.46949 2.99138,3.46949 0.83317,0 1.23825,-0.12198 1.45891,-0.18389 -0.0122,-0.44133 0.0489,-0.72337 0.12303,-1.10331 -0.25797,0.15981 -0.58896,0.36803 -1.3245,0.36803 -1.91268,0 -1.93728,-1.74148 -1.93728,-2.34209 h 3.26178 l 0.0238,-0.72284"
           i:knockout="Off"
           inkscape:connector-curvature="0" />
        <path
           style="overflow:visible;fill:#2d3337;fill-opacity:1;stroke-width:0.26458332"
           id="path7978"
           d="m 325.26836,371.72552 c 0,1.14009 -0.20823,2.67282 -1.63036,2.67282 -0.19633,0 -0.44133,-0.0373 -0.60061,-0.0738 -0.0246,-0.44132 -0.0246,-1.20147 -0.0246,-2.08412 0,-1.05463 0.11007,-1.60549 0.19632,-1.8759 0.25718,-0.87021 0.83344,-0.88212 0.94351,-0.88212 0.93186,0 1.11574,1.2872 1.11574,2.24314 z m -3.51843,1.33641 c 0,0.90752 0,1.42214 -0.14711,1.81425 0.50271,0.19632 1.12765,0.30639 1.8759,0.30639 0.4781,0 1.86346,0 2.61117,-1.53221 0.3556,-0.7112 0.4781,-1.66767 0.4781,-2.39104 0,-0.44132 -0.0492,-1.4097 -0.40455,-2.023 -0.3429,-0.57573 -0.89482,-0.87022 -1.48299,-0.87022 -1.17713,0 -1.52029,0.98082 -1.70391,1.48352 0,-0.62521 0.0119,-2.80749 0.1098,-3.92324 -0.79666,0.36804 -1.28746,0.42889 -1.81425,0.4781 0.4781,0.1958 0.4781,1.00569 0.4781,3.64173 v 3.01572"
           i:knockout="Off"
           inkscape:connector-curvature="0" />
        <path
           style="overflow:visible;fill:#2d3337;fill-opacity:1;stroke-width:0.26458332"
           id="path7980"
           d="m 328.9249,375.10928 c -0.24553,-0.0368 -0.41751,-0.0614 -0.77311,-0.0614 -0.39159,0 -0.66199,0.0249 -0.94351,0.0614 0.1225,-0.2331 0.17145,-0.3437 0.20823,-1.14009 0.0492,-1.09141 0.0614,-4.0095 -0.0243,-4.62254 -0.0614,-0.4662 -0.17145,-0.53948 -0.34317,-0.66199 1.00516,-0.0982 1.2872,-0.17145 1.75287,-0.39211 -0.0976,0.53896 -0.1106,0.80936 -0.1106,1.63036 -0.0241,4.23043 -0.0365,4.68366 0.23363,5.18637"
           i:knockout="Off"
           inkscape:connector-curvature="0" />
        <path
           style="overflow:visible;fill:#2d3337;fill-opacity:1;stroke-width:0.26458332"
           id="path7982"
           d="m 332.85079,371.63927 c -0.0243,0.77258 -0.0368,1.31206 -0.24554,1.74095 -0.25744,0.55192 -0.68633,0.7112 -1.00515,0.7112 -0.73633,0 -0.89508,-0.61277 -0.89508,-1.21338 0,-1.15226 1.03002,-1.23877 1.49542,-1.23877 z m -3.37185,1.50838 c 0,0.77259 0.23309,1.54464 0.91995,1.8759 0.30639,0.13494 0.61278,0.13494 0.7112,0.13494 1.12819,0 1.50786,-0.83397 1.74096,-1.34885 -0.0124,0.53949 0,0.87022 0.0368,1.29964 0.22066,-0.0124 0.44133,-0.0368 0.80936,-0.0368 0.20823,0 0.40455,0.0243 0.61278,0.0368 -0.13494,-0.20823 -0.20823,-0.33126 -0.24554,-0.80936 -0.0243,-0.46567 -0.0243,-0.9316 -0.0243,-1.58142 l 0.0124,-2.50111 c 0,-0.93212 -0.24553,-1.85155 -2.08465,-1.85155 -1.21338,0 -1.92431,0.36804 -2.27991,0.55192 0.14737,0.26988 0.26987,0.50218 0.37994,1.03002 0.47863,-0.41698 1.10384,-0.63764 1.74096,-0.63764 1.01811,0 1.01811,0.67442 1.01811,1.63036 -0.23309,-0.0119 -0.42942,-0.0362 -0.76067,-0.0362 -1.55761,2.7e-4 -2.58736,0.60008 -2.58736,2.2434"
           i:knockout="Off"
           inkscape:connector-curvature="0" />
        <path
           style="overflow:visible;fill:#2d3337;fill-opacity:1;stroke-width:0.26458332"
           id="path7984"
           d="m 339.91252,373.89563 c 0.0124,0.41699 0.0124,0.85831 0.18388,1.21391 -0.27014,-0.0243 -0.42942,-0.0614 -0.9316,-0.0614 -0.29448,0 -0.45376,0.0249 -0.68685,0.0614 0.0487,-0.15928 0.0738,-0.22066 0.0982,-0.42942 0.0368,-0.28152 0.0614,-1.22581 0.0614,-1.55707 v -1.32398 c 0,-0.57626 0,-1.41023 -0.0373,-1.70418 -0.0243,-0.20822 -0.0852,-0.77205 -0.79693,-0.77205 -0.69876,0 -0.9316,0.51461 -1.01759,0.9316 -0.0976,0.42889 -0.0976,0.89508 -0.0976,2.70933 0.0119,1.56951 0.0119,1.71609 0.13441,2.14551 -0.20823,-0.0243 -0.46567,-0.0487 -0.83344,-0.0487 -0.29448,0 -0.49053,0.0119 -0.73527,0.0487 0.0857,-0.19633 0.13493,-0.29449 0.15928,-0.98081 0.0249,-0.67443 0.0738,-3.98489 -0.0373,-4.76912 -0.0609,-0.47863 -0.18389,-0.5887 -0.3183,-0.7112 0.99325,-0.0492 1.31154,-0.20876 1.61846,-0.36751 v 1.29911 c 0.14684,-0.38047 0.45323,-1.22635 1.67957,-1.22635 1.53274,0 1.54464,1.11575 1.55708,1.85103 v 3.6912"
           i:knockout="Off"
           inkscape:connector-curvature="0" />
        <path
           id="path7986"
           d="m 329.02835,366.55741 -1.01547,1.01494 -1.01494,-1.01494 1.01494,-1.01494 1.01547,1.01494"
           i:knockout="Off"
           inkscape:connector-curvature="0"
           style="overflow:visible;fill:#ff8c3f;fill-opacity:1;stroke-width:0.26458332" />
      </g>
      <g
         transform="matrix(1.2624177,0,0,1.269685,-26.272912,24.750684)"
         id="g486"
         style="overflow:visible;fill:#64605d;fill-opacity:1;filter:url(#filter1433);enable-background:new">
        <g
           style="fill:#64605d;fill-opacity:1"
           id="g484"
           i:layer="yes"
           i:dimmedPercent="50"
           i:rgbTrio="#4F008000FFFF">
          <g
             style="fill:#64605d;fill-opacity:1"
             id="g482">
            <path
               style="fill:#64605d;fill-opacity:1"
               inkscape:connector-curvature="0"
               i:knockout="Off"
               d="m 60.969,47.645 c -1.494,0.02 0.281,0.768 2.232,1.069 0.541,-0.422 1.027,-0.846 1.463,-1.26 -1.213,0.297 -2.449,0.304 -3.695,0.191"
               id="path458" />
            <path
               style="fill:#64605d;fill-opacity:1"
               inkscape:connector-curvature="0"
               i:knockout="Off"
               d="m 68.986,45.646 c 0.893,-1.229 1.541,-2.573 1.77,-3.963 -0.201,0.99 -0.736,1.845 -1.244,2.749 -2.793,1.759 -0.264,-1.044 -0.002,-2.111 -3.002,3.783 -0.414,2.268 -0.524,3.325"
               id="path460" />
            <path
               style="fill:#64605d;fill-opacity:1"
               inkscape:connector-curvature="0"
               i:knockout="Off"
               d="m 71.949,37.942 c 0.182,-2.691 -0.529,-1.839 -0.768,-0.814 0.278,0.146 0.499,1.898 0.768,0.814"
               id="path462" />
            <path
               style="fill:#64605d;fill-opacity:1"
               inkscape:connector-curvature="0"
               i:knockout="Off"
               d="m 55.301,1.163 c 0.798,0.142 1.724,0.252 1.591,0.443 0.876,-0.193 1.073,-0.367 -1.591,-0.443"
               id="path464" />
            <path
               style="fill:#64605d;fill-opacity:1"
               inkscape:connector-curvature="0"
               i:knockout="Off"
               d="M 56.893,1.606 56.332,1.723 56.855,1.675 56.893,1.606"
               id="path466" />
            <path
               style="fill:#64605d;fill-opacity:1"
               inkscape:connector-curvature="0"
               i:knockout="Off"
               d="m 81.762,38.962 c 0.09,2.416 -0.705,3.59 -1.424,5.666 l -1.293,0.643 c -1.057,2.054 0.105,1.304 -0.652,2.937 -1.652,1.467 -5.006,4.589 -6.08,4.875 -0.785,-0.017 0.531,-0.926 0.703,-1.281 -2.209,1.516 -1.773,2.276 -5.152,3.199 L 67.766,54.78 c -8.33,3.92 -19.902,-3.847 -19.75,-14.443 -0.088,0.672 -0.253,0.504 -0.437,0.774 -0.43,-5.451 2.518,-10.926 7.49,-13.165 4.863,-2.406 10.564,-1.42 14.045,1.829 -1.912,-2.506 -5.721,-5.163 -10.232,-4.917 -4.421,0.072 -8.558,2.881 -9.938,5.932 -2.264,1.425 -2.528,5.496 -3.514,6.242 -1.329,9.76 2.497,13.975 8.97,18.936 1.016,0.686 0.286,0.791 0.422,1.313 -2.15,-1.006 -4.118,-2.526 -5.738,-4.387 0.86,1.257 1.787,2.479 2.986,3.439 -2.029,-0.685 -4.738,-4.913 -5.527,-5.085 3.495,6.258 14.178,10.975 19.775,8.634 -2.59,0.096 -5.879,0.053 -8.787,-1.022 -1.225,-0.629 -2.884,-1.93 -2.587,-2.173 7.636,2.851 15.522,2.158 22.128,-3.137 1.682,-1.31 3.518,-3.537 4.049,-3.567 -0.799,1.202 0.137,0.578 -0.477,1.639 1.672,-2.701 -0.729,-1.1 1.73,-4.664 l 0.908,1.25 c -0.34,-2.244 2.785,-4.966 2.467,-8.512 0.717,-1.084 0.799,1.168 0.039,3.662 1.055,-2.767 0.279,-3.212 0.549,-5.496 0.291,0.768 0.678,1.583 0.875,2.394 -0.688,-2.675 0.703,-4.503 1.049,-6.058 -0.342,-0.15 -1.061,1.182 -1.227,-1.976 0.025,-1.372 0.383,-0.719 0.52,-1.057 -0.268,-0.155 -0.975,-1.207 -1.404,-3.224 0.309,-0.475 0.832,1.229 1.256,1.298 -0.273,-1.603 -0.742,-2.826 -0.762,-4.057 -1.24,-2.59 -0.439,0.346 -1.443,-1.112 -1.32,-4.114 1.094,-0.955 1.258,-2.823 1.998,2.895 3.137,7.385 3.662,9.244 -0.4,-2.267 -1.045,-4.464 -1.834,-6.589 0.609,0.257 -0.979,-4.663 0.791,-1.405 C 87.189,15.552 81,9.062 75.305,6.018 76,6.655 76.879,7.455 76.565,7.581 73.731,5.896 74.229,5.763 73.823,5.051 71.518,4.112 71.364,5.128 69.839,5.053 65.489,2.745 64.651,2.99 60.648,1.546 L 60.83,2.398 C 57.949,1.438 57.473,2.76 54.36,2.4 54.171,2.253 55.358,1.864 56.336,1.723 53.55,2.091 53.68,1.173 50.954,1.824 51.625,1.353 52.337,1.04 53.053,0.64 50.782,0.778 47.629,1.962 48.602,0.884 44.897,2.538 38.316,4.859 34.623,8.322 L 34.507,7.546 c -1.692,2.031 -7.379,6.066 -7.832,8.699 l -0.453,0.105 c -0.879,1.491 -1.45,3.18 -2.148,4.713 -1.151,1.963 -1.688,0.756 -1.524,1.064 -2.265,4.592 -3.392,8.45 -4.363,11.616 0.692,1.035 0.017,6.232 0.278,10.391 -1.136,20.544 14.418,40.489 31.42,45.093 2.492,0.893 6.197,0.861 9.349,0.949 -3.718,-1.064 -4.198,-0.563 -7.822,-1.826 -2.613,-1.232 -3.185,-2.637 -5.037,-4.244 l 0.733,1.295 c -3.63,-1.285 -2.111,-1.59 -5.065,-2.525 l 0.783,-1.021 c -1.177,-0.09 -3.117,-1.982 -3.647,-3.033 l -1.288,0.051 c -1.546,-1.906 -2.371,-3.283 -2.31,-4.35 l -0.416,0.742 c -0.471,-0.809 -5.691,-7.158 -2.983,-5.68 -0.503,-0.458 -1.172,-0.747 -1.897,-2.066 l 0.551,-0.629 c -1.301,-1.677 -2.398,-3.826 -2.314,-4.542 0.695,0.938 1.177,1.114 1.655,1.275 -3.291,-8.164 -3.476,-0.449 -5.967,-8.31 l 0.526,-0.042 c -0.403,-0.611 -0.65,-1.27 -0.974,-1.919 l 0.23,-2.285 c -2.368,-2.736 -0.662,-11.645 -0.319,-16.53 0.235,-1.986 1.977,-4.101 3.3,-7.418 l -0.806,-0.138 c 1.542,-2.688 8.802,-10.799 12.166,-10.383 1.629,-2.046 -0.324,-0.008 -0.643,-0.522 3.579,-3.703 4.704,-2.616 7.119,-3.283 2.603,-1.545 -2.235,0.604 -1.001,-0.589 4.503,-1.149 3.19,-2.614 9.063,-3.197 0.62,0.352 -1.437,0.544 -1.953,1.001 3.75,-1.836 11.869,-1.417 17.145,1.018 6.117,2.861 12.994,11.314 13.266,19.267 l 0.309,0.083 c -0.156,3.162 0.484,6.819 -0.627,10.177 l 0.751,-1.591"
               id="path468" />
            <path
               style="fill:#64605d;fill-opacity:1"
               inkscape:connector-curvature="0"
               i:knockout="Off"
               d="m 44.658,49.695 -0.211,1.047 c 0.983,1.335 1.763,2.781 3.016,3.821 -0.902,-1.759 -1.571,-2.486 -2.805,-4.868"
               id="path470" />
            <path
               style="fill:#64605d;fill-opacity:1"
               inkscape:connector-curvature="0"
               i:knockout="Off"
               d="m 46.979,49.605 c -0.52,-0.576 -0.826,-1.268 -1.172,-1.956 0.33,1.211 1.006,2.252 1.633,3.312 l -0.461,-1.356"
               id="path472" />
            <path
               style="fill:#64605d;fill-opacity:1"
               inkscape:connector-curvature="0"
               i:knockout="Off"
               d="m 88.063,40.675 -0.219,0.552 c -0.402,2.858 -1.273,5.686 -2.605,8.309 1.472,-2.767 2.421,-5.794 2.824,-8.861"
               id="path474" />
            <path
               style="fill:#64605d;fill-opacity:1"
               inkscape:connector-curvature="0"
               i:knockout="Off"
               d="M 55.598,0.446 C 56.607,0.077 58.08,0.243 59.154,0 57.756,0.117 56.365,0.187 54.992,0.362 l 0.606,0.084"
               id="path476" />
            <path
               style="fill:#64605d;fill-opacity:1"
               inkscape:connector-curvature="0"
               i:knockout="Off"
               d="m 20.127,19.308 c 0.233,2.154 -1.62,2.991 0.41,1.569 1.09,-2.454 -0.424,-0.677 -0.41,-1.569"
               id="path478" />
            <path
               style="fill:#64605d;fill-opacity:1"
               inkscape:connector-curvature="0"
               i:knockout="Off"
               d="m 17.739,29.282 c 0.469,-1.437 0.553,-2.299 0.732,-3.132 -1.293,1.654 -0.596,2.007 -0.732,3.132"
               id="path480" />
          </g>
        </g>
      </g>
      <g
         style="overflow:visible;fill:#ff8c3f;fill-opacity:1;enable-background:new"
         id="g8893-3"
         transform="matrix(1.3360864,0,0,1.3360864,-30.243367,16.512821)">
        <g
           i:rgbTrio="#4F008000FFFF"
           i:dimmedPercent="50"
           i:layer="yes"
           id="g8891-6"
           style="fill:#ff8c3f;fill-opacity:1">
          <g
             id="g8889-7"
             style="fill:#ff8c3f;fill-opacity:1">
            <path
               id="path8865-5"
               d="m 60.969,47.645 c -1.494,0.02 0.281,0.768 2.232,1.069 0.541,-0.422 1.027,-0.846 1.463,-1.26 -1.213,0.297 -2.449,0.304 -3.695,0.191"
               i:knockout="Off"
               inkscape:connector-curvature="0"
               style="fill:#ff8c3f;fill-opacity:1" />
            <path
               id="path8867-3"
               d="m 68.986,45.646 c 0.893,-1.229 1.541,-2.573 1.77,-3.963 -0.201,0.99 -0.736,1.845 -1.244,2.749 -2.793,1.759 -0.264,-1.044 -0.002,-2.111 -3.002,3.783 -0.414,2.268 -0.524,3.325"
               i:knockout="Off"
               inkscape:connector-curvature="0"
               style="fill:#ff8c3f;fill-opacity:1" />
            <path
               id="path8869-5"
               d="m 71.949,37.942 c 0.182,-2.691 -0.529,-1.839 -0.768,-0.814 0.278,0.146 0.499,1.898 0.768,0.814"
               i:knockout="Off"
               inkscape:connector-curvature="0"
               style="fill:#ff8c3f;fill-opacity:1" />
            <path
               id="path8871-6"
               d="m 55.301,1.163 c 0.798,0.142 1.724,0.252 1.591,0.443 0.876,-0.193 1.073,-0.367 -1.591,-0.443"
               i:knockout="Off"
               inkscape:connector-curvature="0"
               style="fill:#ff8c3f;fill-opacity:1" />
            <path
               id="path8873-2"
               d="M 56.893,1.606 56.332,1.723 56.855,1.675 56.893,1.606"
               i:knockout="Off"
               inkscape:connector-curvature="0"
               style="fill:#ff8c3f;fill-opacity:1" />
            <path
               id="path8875-9"
               d="m 81.762,38.962 c 0.09,2.416 -0.705,3.59 -1.424,5.666 l -1.293,0.643 c -1.057,2.054 0.105,1.304 -0.652,2.937 -1.652,1.467 -5.006,4.589 -6.08,4.875 -0.785,-0.017 0.531,-0.926 0.703,-1.281 -2.209,1.516 -1.773,2.276 -5.152,3.199 L 67.766,54.78 c -8.33,3.92 -19.902,-3.847 -19.75,-14.443 -0.088,0.672 -0.253,0.504 -0.437,0.774 -0.43,-5.451 2.518,-10.926 7.49,-13.165 4.863,-2.406 10.564,-1.42 14.045,1.829 -1.912,-2.506 -5.721,-5.163 -10.232,-4.917 -4.421,0.072 -8.558,2.881 -9.938,5.932 -2.264,1.425 -2.528,5.496 -3.514,6.242 -1.329,9.76 2.497,13.975 8.97,18.936 1.016,0.686 0.286,0.791 0.422,1.313 -2.15,-1.006 -4.118,-2.526 -5.738,-4.387 0.86,1.257 1.787,2.479 2.986,3.439 -2.029,-0.685 -4.738,-4.913 -5.527,-5.085 3.495,6.258 14.178,10.975 19.775,8.634 -2.59,0.096 -5.879,0.053 -8.787,-1.022 -1.225,-0.629 -2.884,-1.93 -2.587,-2.173 7.636,2.851 15.522,2.158 22.128,-3.137 1.682,-1.31 3.518,-3.537 4.049,-3.567 -0.799,1.202 0.137,0.578 -0.477,1.639 1.672,-2.701 -0.729,-1.1 1.73,-4.664 l 0.908,1.25 c -0.34,-2.244 2.785,-4.966 2.467,-8.512 0.717,-1.084 0.799,1.168 0.039,3.662 1.055,-2.767 0.279,-3.212 0.549,-5.496 0.291,0.768 0.678,1.583 0.875,2.394 -0.688,-2.675 0.703,-4.503 1.049,-6.058 -0.342,-0.15 -1.061,1.182 -1.227,-1.976 0.025,-1.372 0.383,-0.719 0.52,-1.057 -0.268,-0.155 -0.975,-1.207 -1.404,-3.224 0.309,-0.475 0.832,1.229 1.256,1.298 -0.273,-1.603 -0.742,-2.826 -0.762,-4.057 -1.24,-2.59 -0.439,0.346 -1.443,-1.112 -1.32,-4.114 1.094,-0.955 1.258,-2.823 1.998,2.895 3.137,7.385 3.662,9.244 -0.4,-2.267 -1.045,-4.464 -1.834,-6.589 0.609,0.257 -0.979,-4.663 0.791,-1.405 C 87.189,15.552 81,9.062 75.305,6.018 76,6.655 76.879,7.455 76.565,7.581 73.731,5.896 74.229,5.763 73.823,5.051 71.518,4.112 71.364,5.128 69.839,5.053 65.489,2.745 64.651,2.99 60.648,1.546 L 60.83,2.398 C 57.949,1.438 57.473,2.76 54.36,2.4 54.171,2.253 55.358,1.864 56.336,1.723 53.55,2.091 53.68,1.173 50.954,1.824 51.625,1.353 52.337,1.04 53.053,0.64 50.782,0.778 47.629,1.962 48.602,0.884 44.897,2.538 38.316,4.859 34.623,8.322 L 34.507,7.546 c -1.692,2.031 -7.379,6.066 -7.832,8.699 l -0.453,0.105 c -0.879,1.491 -1.45,3.18 -2.148,4.713 -1.151,1.963 -1.688,0.756 -1.524,1.064 -2.265,4.592 -3.392,8.45 -4.363,11.616 0.692,1.035 0.017,6.232 0.278,10.391 -1.136,20.544 14.418,40.489 31.42,45.093 2.492,0.893 6.197,0.861 9.349,0.949 -3.718,-1.064 -4.198,-0.563 -7.822,-1.826 -2.613,-1.232 -3.185,-2.637 -5.037,-4.244 l 0.733,1.295 c -3.63,-1.285 -2.111,-1.59 -5.065,-2.525 l 0.783,-1.021 c -1.177,-0.09 -3.117,-1.982 -3.647,-3.033 l -1.288,0.051 c -1.546,-1.906 -2.371,-3.283 -2.31,-4.35 l -0.416,0.742 c -0.471,-0.809 -5.691,-7.158 -2.983,-5.68 -0.503,-0.458 -1.172,-0.747 -1.897,-2.066 l 0.551,-0.629 c -1.301,-1.677 -2.398,-3.826 -2.314,-4.542 0.695,0.938 1.177,1.114 1.655,1.275 -3.291,-8.164 -3.476,-0.449 -5.967,-8.31 l 0.526,-0.042 c -0.403,-0.611 -0.65,-1.27 -0.974,-1.919 l 0.23,-2.285 c -2.368,-2.736 -0.662,-11.645 -0.319,-16.53 0.235,-1.986 1.977,-4.101 3.3,-7.418 l -0.806,-0.138 c 1.542,-2.688 8.802,-10.799 12.166,-10.383 1.629,-2.046 -0.324,-0.008 -0.643,-0.522 3.579,-3.703 4.704,-2.616 7.119,-3.283 2.603,-1.545 -2.235,0.604 -1.001,-0.589 4.503,-1.149 3.19,-2.614 9.063,-3.197 0.62,0.352 -1.437,0.544 -1.953,1.001 3.75,-1.836 11.869,-1.417 17.145,1.018 6.117,2.861 12.994,11.314 13.266,19.267 l 0.309,0.083 c -0.156,3.162 0.484,6.819 -0.627,10.177 l 0.751,-1.591"
               i:knockout="Off"
               inkscape:connector-curvature="0"
               style="fill:#ff8c3f;fill-opacity:1" />
            <path
               id="path8877-1"
               d="m 44.658,49.695 -0.211,1.047 c 0.983,1.335 1.763,2.781 3.016,3.821 -0.902,-1.759 -1.571,-2.486 -2.805,-4.868"
               i:knockout="Off"
               inkscape:connector-curvature="0"
               style="fill:#ff8c3f;fill-opacity:1" />
            <path
               id="path8879-2"
               d="m 46.979,49.605 c -0.52,-0.576 -0.826,-1.268 -1.172,-1.956 0.33,1.211 1.006,2.252 1.633,3.312 l -0.461,-1.356"
               i:knockout="Off"
               inkscape:connector-curvature="0"
               style="fill:#ff8c3f;fill-opacity:1" />
            <path
               id="path8881-7"
               d="m 88.063,40.675 -0.219,0.552 c -0.402,2.858 -1.273,5.686 -2.605,8.309 1.472,-2.767 2.421,-5.794 2.824,-8.861"
               i:knockout="Off"
               inkscape:connector-curvature="0"
               style="fill:#ff8c3f;fill-opacity:1" />
            <path
               id="path8883-0"
               d="M 55.598,0.446 C 56.607,0.077 58.08,0.243 59.154,0 57.756,0.117 56.365,0.187 54.992,0.362 l 0.606,0.084"
               i:knockout="Off"
               inkscape:connector-curvature="0"
               style="fill:#ff8c3f;fill-opacity:1" />
            <path
               id="path8885-9"
               d="m 20.127,19.308 c 0.233,2.154 -1.62,2.991 0.41,1.569 1.09,-2.454 -0.424,-0.677 -0.41,-1.569"
               i:knockout="Off"
               inkscape:connector-curvature="0"
               style="fill:#ff8c3f;fill-opacity:1" />
            <path
               id="path8887-3"
               d="m 17.739,29.282 c 0.469,-1.437 0.553,-2.299 0.732,-3.132 -1.293,1.654 -0.596,2.007 -0.732,3.132"
               i:knockout="Off"
               inkscape:connector-curvature="0"
               style="fill:#ff8c3f;fill-opacity:1" />
          </g>
        </g>
      </g>
    </g>
  </g>
</svg>
